graph {
n0;
n1;
n2;
n3;
n4;
n5;
n6;
n7;
n8;
n9;
n10;
n11;
n12;
n13;
n14;
n15;
n16;
n17;
n18;
n19;
n20;
n21;
n22;
n23;
n24;
n25;
n26;
n27;
n28;
n29;
n0 -- n5;
n0 -- n7;
n0 -- n14;
n0 -- n6;
n0 -- n8;
n0 -- n1;
n0 -- n27;
n0 -- n10;
n0 -- n18;
n0 -- n16;
n0 -- n26;
n0 -- n29;
n0 -- n4;
n0 -- n11;
n0 -- n2;
n0 -- n3;
n0 -- n21;
n0 -- n12;
n1 -- n0;
n1 -- n9;
n1 -- n24;
n1 -- n22;
n1 -- n23;
n1 -- n15;
n1 -- n28;
n1 -- n20;
n1 -- n17;
n1 -- n13;
n2 -- n0;
n2 -- n19;
n3 -- n0;
n4 -- n0;
n5 -- n0;
n6 -- n0;
n6 -- n25;
n7 -- n0;
n8 -- n0;
n9 -- n1;
n10 -- n0;
n11 -- n0;
n12 -- n0;
n13 -- n1;
n14 -- n0;
n15 -- n1;
n16 -- n0;
n17 -- n1;
n18 -- n0;
n19 -- n2;
n20 -- n1;
n21 -- n0;
n22 -- n1;
n23 -- n1;
n24 -- n1;
n25 -- n6;
n26 -- n0;
n27 -- n0;
n28 -- n1;
n29 -- n0;
}
