graph {
n0;
n1;
n2;
n3;
n4;
n5;
n6;
n7;
n8;
n9;
n10;
n11;
n12;
n13;
n14;
n15;
n16;
n17;
n18;
n19;
n20;
n21;
n22;
n23;
n24;
n25;
n26;
n27;
n28;
n29;
n0 -- n27;
n1 -- n18;
n1 -- n23;
n2 -- n19;
n2 -- n9;
n3 -- n6;
n3 -- n26;
n3 -- n21;
n4 -- n19;
n4 -- n7;
n5 -- n10;
n5 -- n22;
n6 -- n3;
n6 -- n18;
n7 -- n22;
n7 -- n4;
n8 -- n29;
n8 -- n11;
n9 -- n2;
n9 -- n15;
n10 -- n28;
n10 -- n5;
n11 -- n16;
n11 -- n8;
n12 -- n24;
n12 -- n16;
n13 -- n26;
n13 -- n25;
n14 -- n25;
n15 -- n27;
n15 -- n9;
n16 -- n11;
n16 -- n12;
n17 -- n26;
n18 -- n6;
n18 -- n1;
n19 -- n2;
n19 -- n4;
n20 -- n29;
n20 -- n23;
n21 -- n3;
n22 -- n7;
n22 -- n5;
n23 -- n1;
n23 -- n20;
n24 -- n28;
n24 -- n12;
n25 -- n14;
n25 -- n13;
n26 -- n3;
n26 -- n17;
n26 -- n13;
n27 -- n0;
n27 -- n15;
n28 -- n10;
n28 -- n24;
n29 -- n20;
n29 -- n8;
}
