graph {
n0;
n1;
n2;
n3;
n4;
n5;
n6;
n7;
n8;
n9;
n10;
n11;
n12;
n13;
n14;
n15;
n16;
n17;
n18;
n19;
n20;
n21;
n22;
n23;
n24;
n25;
n26;
n27;
n28;
n29;
n0 -- n14;
n0 -- n21;
n0 -- n1;
n0 -- n26;
n0 -- n3;
n0 -- n12;
n0 -- n6;
n0 -- n8;
n0 -- n29;
n0 -- n11;
n0 -- n5;
n0 -- n4;
n0 -- n10;
n0 -- n18;
n0 -- n16;
n0 -- n7;
n0 -- n2;
n0 -- n27;
n1 -- n14;
n1 -- n17;
n1 -- n13;
n1 -- n3;
n1 -- n23;
n1 -- n6;
n1 -- n0;
n1 -- n8;
n1 -- n24;
n1 -- n5;
n1 -- n15;
n1 -- n4;
n1 -- n10;
n1 -- n18;
n1 -- n28;
n1 -- n20;
n1 -- n7;
n1 -- n2;
n1 -- n22;
n1 -- n9;
n2 -- n21;
n2 -- n1;
n2 -- n13;
n2 -- n3;
n2 -- n12;
n2 -- n6;
n2 -- n0;
n2 -- n24;
n2 -- n5;
n2 -- n15;
n2 -- n4;
n2 -- n7;
n2 -- n19;
n2 -- n9;
n3 -- n21;
n3 -- n1;
n3 -- n13;
n3 -- n26;
n3 -- n6;
n3 -- n0;
n3 -- n8;
n3 -- n24;
n3 -- n5;
n3 -- n4;
n3 -- n10;
n3 -- n20;
n3 -- n7;
n3 -- n2;
n3 -- n9;
n4 -- n14;
n4 -- n17;
n4 -- n1;
n4 -- n13;
n4 -- n3;
n4 -- n12;
n4 -- n6;
n4 -- n0;
n4 -- n11;
n4 -- n5;
n4 -- n10;
n4 -- n16;
n4 -- n28;
n4 -- n20;
n4 -- n7;
n4 -- n2;
n4 -- n19;
n4 -- n9;
n5 -- n14;
n5 -- n21;
n5 -- n1;
n5 -- n3;
n5 -- n6;
n5 -- n0;
n5 -- n8;
n5 -- n11;
n5 -- n4;
n5 -- n10;
n5 -- n7;
n5 -- n2;
n5 -- n19;
n5 -- n22;
n6 -- n25;
n6 -- n1;
n6 -- n13;
n6 -- n3;
n6 -- n12;
n6 -- n0;
n6 -- n8;
n6 -- n11;
n6 -- n5;
n6 -- n15;
n6 -- n4;
n6 -- n10;
n6 -- n18;
n6 -- n2;
n6 -- n19;
n6 -- n9;
n6 -- n27;
n7 -- n25;
n7 -- n1;
n7 -- n3;
n7 -- n12;
n7 -- n0;
n7 -- n8;
n7 -- n24;
n7 -- n5;
n7 -- n4;
n7 -- n18;
n7 -- n16;
n7 -- n20;
n7 -- n2;
n7 -- n19;
n7 -- n22;
n8 -- n14;
n8 -- n17;
n8 -- n1;
n8 -- n3;
n8 -- n23;
n8 -- n6;
n8 -- n0;
n8 -- n29;
n8 -- n11;
n8 -- n7;
n8 -- n5;
n8 -- n9;
n9 -- n17;
n9 -- n1;
n9 -- n13;
n9 -- n3;
n9 -- n12;
n9 -- n6;
n9 -- n8;
n9 -- n15;
n9 -- n4;
n9 -- n16;
n9 -- n28;
n9 -- n20;
n9 -- n2;
n10 -- n1;
n10 -- n26;
n10 -- n3;
n10 -- n6;
n10 -- n0;
n10 -- n11;
n10 -- n24;
n10 -- n5;
n10 -- n4;
n10 -- n18;
n10 -- n28;
n10 -- n22;
n10 -- n27;
n11 -- n10;
n11 -- n25;
n11 -- n17;
n11 -- n21;
n11 -- n16;
n11 -- n23;
n11 -- n6;
n11 -- n0;
n11 -- n8;
n11 -- n5;
n11 -- n15;
n11 -- n4;
n12 -- n14;
n12 -- n17;
n12 -- n6;
n12 -- n0;
n12 -- n24;
n12 -- n15;
n12 -- n4;
n12 -- n18;
n12 -- n16;
n12 -- n7;
n12 -- n2;
n12 -- n22;
n12 -- n9;
n13 -- n25;
n13 -- n1;
n13 -- n26;
n13 -- n3;
n13 -- n6;
n13 -- n29;
n13 -- n2;
n13 -- n9;
n13 -- n4;
n14 -- n25;
n14 -- n1;
n14 -- n28;
n14 -- n12;
n14 -- n0;
n14 -- n8;
n14 -- n29;
n14 -- n5;
n14 -- n4;
n15 -- n1;
n15 -- n12;
n15 -- n20;
n15 -- n6;
n15 -- n29;
n15 -- n11;
n15 -- n2;
n15 -- n9;
n15 -- n27;
n16 -- n12;
n16 -- n23;
n16 -- n0;
n16 -- n11;
n16 -- n7;
n16 -- n19;
n16 -- n22;
n16 -- n4;
n16 -- n9;
n17 -- n1;
n17 -- n26;
n17 -- n12;
n17 -- n8;
n17 -- n11;
n17 -- n4;
n17 -- n9;
n18 -- n10;
n18 -- n1;
n18 -- n12;
n18 -- n23;
n18 -- n6;
n18 -- n0;
n18 -- n7;
n18 -- n27;
n19 -- n25;
n19 -- n16;
n19 -- n6;
n19 -- n5;
n19 -- n7;
n19 -- n2;
n19 -- n4;
n20 -- n21;
n20 -- n1;
n20 -- n3;
n20 -- n23;
n20 -- n29;
n20 -- n7;
n20 -- n15;
n20 -- n4;
n20 -- n9;
n21 -- n3;
n21 -- n20;
n21 -- n0;
n21 -- n11;
n21 -- n5;
n21 -- n2;
n22 -- n10;
n22 -- n1;
n22 -- n16;
n22 -- n12;
n22 -- n5;
n22 -- n7;
n23 -- n18;
n23 -- n1;
n23 -- n16;
n23 -- n20;
n23 -- n8;
n23 -- n11;
n23 -- n27;
n24 -- n10;
n24 -- n1;
n24 -- n26;
n24 -- n28;
n24 -- n3;
n24 -- n12;
n24 -- n7;
n24 -- n2;
n25 -- n14;
n25 -- n13;
n25 -- n6;
n25 -- n11;
n25 -- n7;
n25 -- n19;
n26 -- n10;
n26 -- n17;
n26 -- n13;
n26 -- n3;
n26 -- n0;
n26 -- n24;
n27 -- n10;
n27 -- n18;
n27 -- n23;
n27 -- n6;
n27 -- n0;
n27 -- n15;
n28 -- n10;
n28 -- n14;
n28 -- n1;
n28 -- n24;
n28 -- n4;
n28 -- n9;
n29 -- n14;
n29 -- n13;
n29 -- n20;
n29 -- n0;
n29 -- n8;
n29 -- n15;
}
